Lab1/Lab_1_Verilog_starter_code_export/dump.vcd
$date
	Fri Oct 20 19:49:47 2023
$end
$version
	ModelSim Version 10.5b
$end
$timescale
	1ps
$end

$scope module robertsonstest $end
$var parameter 32 ! W $end
$var reg 1 " clk $end
$var reg 1 # reset $end
$var reg 8 $ multiplier [7:0] $end
$var reg 8 % multiplicand [7:0] $end
$var integer 32 & score $end
$var wire 1 ' product [15] $end
$var wire 1 ( product [14] $end
$var wire 1 ) product [13] $end
$var wire 1 * product [12] $end
$var wire 1 + product [11] $end
$var wire 1 , product [10] $end
$var wire 1 - product [9] $end
$var wire 1 . product [8] $end
$var wire 1 / product [7] $end
$var wire 1 0 product [6] $end
$var wire 1 1 product [5] $end
$var wire 1 2 product [4] $end
$var wire 1 3 product [3] $end
$var wire 1 4 product [2] $end
$var wire 1 5 product [1] $end
$var wire 1 6 product [0] $end
$var wire 1 7 done $end
$var integer 32 8 cycle $end
$var integer 32 9 cycle1 $end
$var integer 32 : cycle2 $end
$var reg 16 ; expected_product [15:0] $end

$scope task rslt_disp $end
$upscope $end

$scope task rslt_disp2 $end
$upscope $end
$upscope $end
$enddefinitions $end
#0
$dumpvars
0"
1#
b0 $
b0 %
bx ;
b1000 !
b0 &
b0 8
b0 9
b0 :
x6
x5
x4
x3
x2
x1
x0
x/
x.
x-
x,
x+
x*
x)
x(
x'
07
$end
#5000
1"
#10000
0#
b1 9
b0 ;
0"
b1 8
#15000
1"
0.
0-
0,
0+
0*
0)
0(
0'
#20000
0"
b10 8
#25000
1"
06
05
04
03
02
01
00
0/
#30000
0"
b11 8
#35000
1"
#40000
0"
b100 8
#45000
1"
#50000
0"
b101 8
#55000
1"
#60000
0"
b110 8
#65000
1"
#70000
0"
b111 8
#75000
1"
#80000
0"
b1000 8
#85000
1"
#90000
0"
b1001 8
#95000
1"
#100000
0"
b1010 8
#105000
1"
#110000
0"
b1011 8
#115000
1"
#120000
0"
b1100 8
#125000
1"
#130000
0"
b1101 8
#135000
1"
#140000
0"
b1110 8
#145000
1"
#150000
0"
b1111 8
#155000
1"
#160000
0"
b10000 8
#165000
1"
#170000
0"
b10001 8
#175000
1"
#180000
0"
b10010 8
#185000
1"
#190000
0"
b10011 8
#195000
1"
#200000
0"
b10100 8
#205000
1"
#210000
0"
b10101 8
#215000
1"
#220000
0"
b10110 8
#225000
1"
#230000
0"
b10111 8
#235000
1"
#240000
0"
b11000 8
#245000
1"
#250000
0"
b11001 8
#255000
1"
#260000
0"
b11010 8
#265000
1"
#270000
0"
b11011 8
#275000
1"
#280000
0"
b11100 8
#285000
1"
#290000
0"
b11101 8
#295000
1"
#300000
0"
b11110 8
#305000
1"
#310000
0"
b11111 8
#315000
1"
#320000
0"
b100000 8
#325000
1"
#330000
0"
b100001 8
#335000
1"
#340000
0"
b100010 8
#345000
1"
#350000
0"
b100011 8
#355000
1"
#360000
0"
b100100 8
#365000
1"
#370000
0"
b100101 8
#375000
1"
#380000
0"
b100110 8
#385000
1"
#390000
0"
b100111 8
#395000
1"
#400000
0"
b101000 8
#405000
1"
#410000
0"
b101001 8
#415000
1"
#420000
0"
b101010 8
#425000
1"
#430000
0"
b101011 8
#435000
1"
#440000
0"
b101100 8
#445000
1"
#450000
0"
b101101 8
#455000
1"
#460000
0"
b101110 8
#465000
1"
#470000
0"
b101111 8
#475000
1"
#480000
0"
b110000 8
#485000
1"
#490000
0"
b110001 8
#495000
1"
#500000
0"
b110010 8
#505000
1"
17
#510000
0"
b110011 8
#515000
1"
#520000
0"
b110100 8
#525000
1"
#530000
0"
b110101 8
#535000
1"
#540000
0"
b110110 8
#545000
b110 $
b1001 %
1#
1"
07
#550000
0"
b110111 8
#555000
0#
b10 9
b110110 ;
1"
#560000
0"
b111000 8
#565000
1"
15
14
#570000
0"
b111001 8
#575000
1"
#580000
0"
b111010 8
#585000
1"
#590000
0"
b111011 8
#595000
1"
#600000
0"
b111100 8
#605000
1"
#610000
0"
b111101 8
#615000
1"
#620000
0"
b111110 8
#625000
1"
#630000
0"
b111111 8
#635000
1"
#640000
0"
b1000000 8
#645000
1"
#650000
0"
b1000001 8
#655000
1"
#660000
0"
b1000010 8
#665000
1"
#670000
0"
b1000011 8
#675000
1"
#680000
0"
b1000100 8
#685000
1"
#690000
0"
b1000101 8
#695000
1"
#700000
0"
b1000110 8
#705000
1"
#710000
0"
b1000111 8
#715000
1"
#720000
0"
b1001000 8
#725000
1"
#730000
0"
b1001001 8
#735000
1"
#740000
0"
b1001010 8
#745000
1"
#750000
0"
b1001011 8
#755000
1"
#760000
0"
b1001100 8
#765000
1"
#770000
0"
b1001101 8
#775000
1"
#780000
0"
b1001110 8
#785000
1"
#790000
0"
b1001111 8
#795000
1"
#800000
0"
b1010000 8
#805000
1"
#810000
0"
b1010001 8
#815000
1"
#820000
0"
b1010010 8
#825000
1"
#830000
0"
b1010011 8
#835000
1"
#840000
0"
b1010100 8
#845000
1"
#850000
0"
b1010101 8
#855000
1"
#860000
0"
b1010110 8
#865000
1"
#870000
0"
b1010111 8
#875000
1"
#880000
0"
b1011000 8
#885000
1"
#890000
0"
b1011001 8
#895000
1"
#900000
0"
b1011010 8
#905000
1"
#910000
0"
b1011011 8
#915000
1"
#920000
0"
b1011100 8
#925000
1"
#930000
0"
b1011101 8
#935000
1"
#940000
0"
b1011110 8
#945000
1"
#950000
0"
b1011111 8
#955000
1"
#960000
0"
b1100000 8
#965000
1"
#970000
0"
b1100001 8
#975000
1"
#980000
0"
b1100010 8
#985000
1"
#990000
0"
b1100011 8
#995000
1"
#1000000
0"
b1100100 8
#1005000
1"
#1010000
0"
b1100101 8
#1015000
1"
#1020000
0"
b1100110 8
#1025000
1"
#1030000
0"
b1100111 8
#1035000
1"
#1040000
0"
b1101000 8
#1045000
1"
#1050000
0"
b1101001 8
#1055000
1"
#1060000
0"
b1101010 8
#1065000
1"
12
11
17
#1070000
0"
b1101011 8
#1075000
1"
#1080000
0"
b1101100 8
#1085000
1"
#1090000
0"
b1101101 8
#1095000
1"
#1100000
0"
b1101110 8
